{
  "version": "14.0.0",
  "vulnerabilities": [
    {
      "id": "ee3a0e067590640805082f9eba867a2cda937a47bb87683acc8d02ea8e6901ff",
      "category": "sast",
      "name": "Path traversal: injection possible in 1st argument passed to 'System.IO.File.ReadAllBytes'",
      "message": "Path traversal: injection possible in 1st argument passed to 'System.IO.File.ReadAllBytes'",
      "cve": "WebApp/Controllers/HomeController.cs:52:SCS0018",
      "scanner": {
        "id": "security_code_scan",
        "name": "Security Code Scan"
      },
      "location": {
        "file": "WebApp/Controllers/HomeController.cs",
        "start_line": 52
      },
      "identifiers": [
        {
          "type": "security_code_scan_rule_id",
          "name": "SCS0018",
          "value": "SCS0018",
          "url": "https://security-code-scan.github.io/#SCS0018"
        }
      ]
    },
    {
      "id": "f5d8443ed1bc2ee747fe2833cecd6e1320578130931c87d3de4da38af6cb74d0",
      "category": "sast",
      "name": "Weak random generator",
      "message": "Weak random generator",
      "cve": "WebLib/GetRandom.cs:11:SCS0005",
      "scanner": {
        "id": "security_code_scan",
        "name": "Security Code Scan"
      },
      "location": {
        "file": "WebLib/GetRandom.cs",
        "start_line": 11
      },
      "identifiers": [
        {
          "type": "security_code_scan_rule_id",
          "name": "SCS0005",
          "value": "SCS0005",
          "url": "https://security-code-scan.github.io/#SCS0005"
        }
      ]
    }
  ],
  "remediations": [],
  "scan": {
    "scanner": {
      "id": "security_code_scan",
      "name": "Security Code Scan",
      "url": "https://security-code-scan.github.io",
      "vendor": {
        "name": "GitLab"
      },
      "version": "3.5.3"
    },
    "type": "sast",
    "status": "success",
    "start_time": "placeholder-value",
    "end_time": "placeholder-value"
  }
}
